case_study_1
…
#ggplot(data=total, aes(total$ABV)) + geom_histogram()

#get median ABV and IBU for each state
median <-  total %>% group_by(State) %>% dplyr::summarise(median_ABV=median(ABV, na.rm = T),median_IBU = median(IBU,na.rm=T) )
median

## # A tibble: 51 x 3
##    State median_ABV median_IBU
##    <fct>      <dbl>      <dbl>
##  1 AK        0.056        46  
##  2 AL        0.06         43  
##  3 AR        0.052        39  
##  4 AZ        0.055        20.5
##  5 CA        0.058        42  
##  6 CO        0.0605       40  
##  7 CT        0.06         29  
##  8 DC        0.0625       47.5
##  9 DE        0.055        52  
## 10 FL        0.057        55  
## # ... with 41 more rows
…
question 5: Which state has the maximum alcoholic (ABV) beer? Which state has the most bitter (IBU) beer?

Answer: Colorado has the maximum ABV beer and Oregon has the most bitter beer.

#Which state has the maximum alcoholic (ABV) beer? Which state has the most bitter #(IBU) beer?
#
max <- total %>% group_by(State) %>% dplyr::summarise(max_ABV=max(ABV, na.rm = T),max_IBU = max(IBU,na.rm=T) )

## Warning in max(IBU, na.rm = T): no non-missing arguments to max; returning
## -Inf

max

## # A tibble: 51 x 3
##    State max_ABV max_IBU
##    <fct>   <dbl>   <dbl>
##  1 AK      0.068      71
##  2 AL      0.093     103
##  3 AR      0.061      39
##  4 AZ      0.095      99
##  5 CA      0.099     115
##  6 CO      0.128     104
##  7 CT      0.09       85
##  8 DC      0.092     115
##  9 DE      0.055      52
## 10 FL      0.082      82
## # ... with 41 more rows
…
